// Jest Snapshot v1, https://goo.gl/fbAQLP

exports[`store should be able to create a new store 1`] = `
Object {
  "_persist": Object {
    "rehydrated": false,
    "version": -1,
  },
  "app": Object {
    "alerts": Array [],
  },
  "genre": Array [
    Object {
      "genreId": 2,
      "label": "Blues",
    },
    Object {
      "genreId": 5,
      "label": "Classical",
    },
    Object {
      "genreId": 6,
      "label": "Country",
    },
    Object {
      "genreId": 17,
      "label": "Dance",
    },
    Object {
      "genreId": 7,
      "label": "Electronic",
    },
    Object {
      "genreId": 18,
      "label": "Hip-Hop",
    },
    Object {
      "genreId": 11,
      "label": "Jazz",
    },
    Object {
      "genreId": 12,
      "label": "Latin",
    },
    Object {
      "genreId": 21,
      "label": "Metal",
    },
    Object {
      "genreId": 15,
      "label": "R&B / Soul",
    },
    Object {
      "genreId": 24,
      "label": "Reggae / Dancehall",
    },
    Object {
      "genreId": 16,
      "label": "Soundtracks",
    },
    Object {
      "genreId": 19,
      "label": "World",
    },
  ],
  "song": Object {
    "count": 0,
    "params": Object {},
    "songs": Object {
      "data": Array [],
      "error": "",
      "isError": false,
      "isLoading": false,
    },
  },
}
`;
